Chapter_3_R_for_Data_Science
…
          Loading

Chapter_3_R_for_Data_Science

Trevor Barnes

11/18/2017

Chapter 3 - Data Transformation with dplyr

nycflights13 - be sure that you have run install.packages(nycflights13)

## # A tibble: 336,776 x 19
##     year month   day dep_time sched_dep_time dep_delay arr_time
##    <int> <int> <int>    <int>          <int>     <dbl>    <int>
##  1  2013     1     1      517            515         2      830
##  2  2013     1     1      533            529         4      850
##  3  2013     1     1      542            540         2      923
##  4  2013     1     1      544            545        -1     1004
##  5  2013     1     1      554            600        -6      812
##  6  2013     1     1      554            558        -4      740
##  7  2013     1     1      555            600        -5      913
##  8  2013     1     1      557            600        -3      709
##  9  2013     1     1      557            600        -3      838
## 10  2013     1     1      558            600        -2      753
## # ... with 336,766 more rows, and 12 more variables: sched_arr_time <int>,
## #   arr_delay <dbl>, carrier <chr>, flight <int>, tailnum <chr>,
## #   origin <chr>, dest <chr>, air_time <dbl>, distance <dbl>, hour <dbl>,
## #   minute <dbl>, time_hour <dttm>

Filter Rows with filter()

## Filter for month and day being 1,1

filter(flights, month ==1, day ==1)

## # A tibble: 842 x 19
##     year month   day dep_time sched_dep_time dep_delay arr_time
##    <int> <int> <int>    <int>          <int>     <dbl>    <int>
##  1  2013     1     1      517            515         2      830
##  2  2013     1     1      533            529         4      850
##  3  2013     1     1      542            540         2      923
##  4  2013     1     1      544            545        -1     1004
##  5  2013     1     1      554            600        -6      812
##  6  2013     1     1      554            558        -4      740
##  7  2013     1     1      555            600        -5      913
##  8  2013     1     1      557            600        -3      709
##  9  2013     1     1      557            600        -3      838
## 10  2013     1     1      558            600        -2      753
## # ... with 832 more rows, and 12 more variables: sched_arr_time <int>,
## #   arr_delay <dbl>, carrier <chr>, flight <int>, tailnum <chr>,
## #   origin <chr>, dest <chr>, air_time <dbl>, distance <dbl>, hour <dbl>,
## #   minute <dbl>, time_hour <dttm>

## Practice setting variables to the filters

Jan1 <- filter(flights, month == 1, day == 1)
(Dec25 <- filter(flights, month == 12, day == 25))

## # A tibble: 719 x 19
##     year month   day dep_time sched_dep_time dep_delay arr_time
##    <int> <int> <int>    <int>          <int>     <dbl>    <int>
##  1  2013    12    25      456            500        -4      649
##  2  2013    12    25      524            515         9      805
##  3  2013    12    25      542            540         2      832
##  4  2013    12    25      546            550        -4     1022
##  5  2013    12    25      556            600        -4      730
##  6  2013    12    25      557            600        -3      743
##  7  2013    12    25      557            600        -3      818
##  8  2013    12    25      559            600        -1      855
##  9  2013    12    25      559            600        -1      849
## 10  2013    12    25      600            600         0      850
## # ... with 709 more rows, and 12 more variables: sched_arr_time <int>,
## #   arr_delay <dbl>, carrier <chr>, flight <int>, tailnum <chr>,
## #   origin <chr>, dest <chr>, air_time <dbl>, distance <dbl>, hour <dbl>,
## #   minute <dbl>, time_hour <dttm>
…
near(sqrt(2)^2, 2)

## [1] TRUE

near(1/49*49, 1)

## [1] TRUE

Logical Operators - & is ‘and’ - | is ‘or’ - ! is ‘not’

## Filter flights for Nov or Dec

filter(flights, month == 11 | month == 12)

## # A tibble: 55,403 x 19
##     year month   day dep_time sched_dep_time dep_delay arr_time
##    <int> <int> <int>    <int>          <int>     <dbl>    <int>
##  1  2013    11     1        5           2359         6      352
##  2  2013    11     1       35           2250       105      123
##  3  2013    11     1      455            500        -5      641
##  4  2013    11     1      539            545        -6      856
##  5  2013    11     1      542            545        -3      831
##  6  2013    11     1      549            600       -11      912
##  7  2013    11     1      550            600       -10      705
##  8  2013    11     1      554            600        -6      659
##  9  2013    11     1      554            600        -6      826
## 10  2013    11     1      554            600        -6      749
## # ... with 55,393 more rows, and 12 more variables: sched_arr_time <int>,
## #   arr_delay <dbl>, carrier <chr>, flight <int>, tailnum <chr>,
## #   origin <chr>, dest <chr>, air_time <dbl>, distance <dbl>, hour <dbl>,
## #   minute <dbl>, time_hour <dttm>

## Retyping the same field over and over can be tedious
## Try using the 'x %in% y' which will select every row where x is the value of y

nov_dec <- filter(flights, month %in% c(11,12))

## De Morgan's law states that !(x & y) is the same as !x | !y
## Also, that !(x | y) is the same as !x & !y
## The following formula can be written two different ways to find flights that were not delayed on departure or arrival by more than two hours

filter(flights, !(arr_delay > 120 | dep_delay > 120))

## # A tibble: 316,050 x 19
##     year month   day dep_time sched_dep_time dep_delay arr_time
##    <int> <int> <int>    <int>          <int>     <dbl>    <int>
##  1  2013     1     1      517            515         2      830
##  2  2013     1     1      533            529         4      850
##  3  2013     1     1      542            540         2      923
##  4  2013     1     1      544            545        -1     1004
##  5  2013     1     1      554            600        -6      812
##  6  2013     1     1      554            558        -4      740
##  7  2013     1     1      555            600        -5      913
##  8  2013     1     1      557            600        -3      709
##  9  2013     1     1      557            600        -3      838
## 10  2013     1     1      558            600        -2      753
## # ... with 316,040 more rows, and 12 more variables: sched_arr_time <int>,
## #   arr_delay <dbl>, carrier <chr>, flight <int>, tailnum <chr>,
## #   origin <chr>, dest <chr>, air_time <dbl>, distance <dbl>, hour <dbl>,
## #   minute <dbl>, time_hour <dttm>

filter(flights, arr_delay <= 120, dep_delay <= 120)

## # A tibble: 316,050 x 19
##     year month   day dep_time sched_dep_time dep_delay arr_time
##    <int> <int> <int>    <int>          <int>     <dbl>    <int>
##  1  2013     1     1      517            515         2      830
##  2  2013     1     1      533            529         4      850
##  3  2013     1     1      542            540         2      923
##  4  2013     1     1      544            545        -1     1004
##  5  2013     1     1      554            600        -6      812
##  6  2013     1     1      554            558        -4      740
##  7  2013     1     1      555            600        -5      913
##  8  2013     1     1      557            600        -3      709
##  9  2013     1     1      557            600        -3      838
## 10  2013     1     1      558            600        -2      753
## # ... with 316,040 more rows, and 12 more variables: sched_arr_time <int>,
## #   arr_delay <dbl>, carrier <chr>, flight <int>, tailnum <chr>,
## #   origin <chr>, dest <chr>, air_time <dbl>, distance <dbl>, hour <dbl>,
## #   minute <dbl>, time_hour <dttm>
…
filter(df, is.na(x) | x > 1)

## # A tibble: 2 x 1
##       x
##   <dbl>
## 1    NA
## 2     3

Arrange Rows with arrange()

## Example

arrange(flights, year, month, day)

## # A tibble: 336,776 x 19
##     year month   day dep_time sched_dep_time dep_delay arr_time
##    <int> <int> <int>    <int>          <int>     <dbl>    <int>
##  1  2013     1     1      517            515         2      830
##  2  2013     1     1      533            529         4      850
##  3  2013     1     1      542            540         2      923
##  4  2013     1     1      544            545        -1     1004
##  5  2013     1     1      554            600        -6      812
##  6  2013     1     1      554            558        -4      740
##  7  2013     1     1      555            600        -5      913
##  8  2013     1     1      557            600        -3      709
##  9  2013     1     1      557            600        -3      838
## 10  2013     1     1      558            600        -2      753
## # ... with 336,766 more rows, and 12 more variables: sched_arr_time <int>,
## #   arr_delay <dbl>, carrier <chr>, flight <int>, tailnum <chr>,
## #   origin <chr>, dest <chr>, air_time <dbl>, distance <dbl>, hour <dbl>,
## #   minute <dbl>, time_hour <dttm>

## You can use 'desc()' to sort a column in descending order

arrange(flights, desc(arr_delay))

## # A tibble: 336,776 x 19
##     year month   day dep_time sched_dep_time dep_delay arr_time
##    <int> <int> <int>    <int>          <int>     <dbl>    <int>
##  1  2013     1     9      641            900      1301     1242
##  2  2013     6    15     1432           1935      1137     1607
##  3  2013     1    10     1121           1635      1126     1239
##  4  2013     9    20     1139           1845      1014     1457
##  5  2013     7    22      845           1600      1005     1044
##  6  2013     4    10     1100           1900       960     1342
##  7  2013     3    17     2321            810       911      135
##  8  2013     7    22     2257            759       898      121
##  9  2013    12     5      756           1700       896     1058
## 10  2013     5     3     1133           2055       878     1250
## # ... with 336,766 more rows, and 12 more variables: sched_arr_time <int>,
## #   arr_delay <dbl>, carrier <chr>, flight <int>, tailnum <chr>,
## #   origin <chr>, dest <chr>, air_time <dbl>, distance <dbl>, hour <dbl>,
## #   minute <dbl>, time_hour <dttm>
…
## # A tibble: 3 x 1
##       x
##   <dbl>
## 1     5
## 2     2
## 3    NA

Select Columns with select()

## This is very useful when working with many columns

select(flights, year, month, day)

## # A tibble: 336,776 x 3
##     year month   day
##    <int> <int> <int>
##  1  2013     1     1
##  2  2013     1     1
##  3  2013     1     1
##  4  2013     1     1
##  5  2013     1     1
##  6  2013     1     1
##  7  2013     1     1
##  8  2013     1     1
##  9  2013     1     1
## 10  2013     1     1
## # ... with 336,766 more rows

## Select all columns between two columns

select(flights, year:day)

## # A tibble: 336,776 x 3
##     year month   day
##    <int> <int> <int>
##  1  2013     1     1
##  2  2013     1     1
##  3  2013     1     1
##  4  2013     1     1
##  5  2013     1     1
##  6  2013     1     1
##  7  2013     1     1
##  8  2013     1     1
##  9  2013     1     1
## 10  2013     1     1
## # ... with 336,766 more rows

## Select all columns except from between those columns

select(flights, - (year:day))

## # A tibble: 336,776 x 16
##    dep_time sched_dep_time dep_delay arr_time sched_arr_time arr_delay
##       <int>          <int>     <dbl>    <int>          <int>     <dbl>
##  1      517            515         2      830            819        11
##  2      533            529         4      850            830        20
##  3      542            540         2      923            850        33
##  4      544            545        -1     1004           1022       -18
##  5      554            600        -6      812            837       -25
##  6      554            558        -4      740            728        12
##  7      555            600        -5      913            854        19
##  8      557            600        -3      709            723       -14
##  9      557            600        -3      838            846        -8
## 10      558            600        -2      753            745         8
## # ... with 336,766 more rows, and 10 more variables: carrier <chr>,
## #   flight <int>, tailnum <chr>, origin <chr>, dest <chr>, air_time <dbl>,
## #   distance <dbl>, hour <dbl>, minute <dbl>, time_hour <dttm>

## Some other helpful select 
## starts_with("abc")
## ends_with("xyz")
## contains("ijk")
## matches("(.)\\1")
## num_range("x", 1:3) ## matches x1, x2, x3
## see ?select for more details

## select can also be used to rename variables, as 'rename()' is a version of select

rename(flights, tail_num = tailnum)

## # A tibble: 336,776 x 19
##     year month   day dep_time sched_dep_time dep_delay arr_time
##    <int> <int> <int>    <int>          <int>     <dbl>    <int>
##  1  2013     1     1      517            515         2      830
##  2  2013     1     1      533            529         4      850
##  3  2013     1     1      542            540         2      923
##  4  2013     1     1      544            545        -1     1004
##  5  2013     1     1      554            600        -6      812
##  6  2013     1     1      554            558        -4      740
##  7  2013     1     1      555            600        -5      913
##  8  2013     1     1      557            600        -3      709
##  9  2013     1     1      557            600        -3      838
## 10  2013     1     1      558            600        -2      753
## # ... with 336,766 more rows, and 12 more variables: sched_arr_time <int>,
## #   arr_delay <dbl>, carrier <chr>, flight <int>, tail_num <chr>,
## #   origin <chr>, dest <chr>, air_time <dbl>, distance <dbl>, hour <dbl>,
## #   minute <dbl>, time_hour <dttm>

## Another option is to use 'select()' in conjunction with the 'everything()'hepler and is useful if you have variables you want to move at the start of the data frame

select(flights, time_hour, air_time, everything())

## # A tibble: 336,776 x 19
##              time_hour air_time  year month   day dep_time sched_dep_time
##                 <dttm>    <dbl> <int> <int> <int>    <int>          <int>
##  1 2013-01-01 05:00:00      227  2013     1     1      517            515
##  2 2013-01-01 05:00:00      227  2013     1     1      533            529
##  3 2013-01-01 05:00:00      160  2013     1     1      542            540
##  4 2013-01-01 05:00:00      183  2013     1     1      544            545
##  5 2013-01-01 06:00:00      116  2013     1     1      554            600
##  6 2013-01-01 05:00:00      150  2013     1     1      554            558
##  7 2013-01-01 06:00:00      158  2013     1     1      555            600
##  8 2013-01-01 06:00:00       53  2013     1     1      557            600
##  9 2013-01-01 06:00:00      140  2013     1     1      557            600
## 10 2013-01-01 06:00:00      138  2013     1     1      558            600
## # ... with 336,766 more rows, and 12 more variables: dep_delay <dbl>,
## #   arr_time <int>, sched_arr_time <int>, arr_delay <dbl>, carrier <chr>,
## #   flight <int>, tailnum <chr>, origin <chr>, dest <chr>, distance <dbl>,
## #   hour <dbl>, minute <dbl>
…
## Mutations work by adding new columns at the end of your dataset, it may be easier to first narrow down your dataset

flights_sml <- select(flights, 
                      year:day,
                      ends_with("delay"),
                      distance,
                      air_time
                      )

mutate(flights_sml,
       gain = arr_delay - dep_delay,
       speed = distance / air_time * 60)

## # A tibble: 336,776 x 9
##     year month   day dep_delay arr_delay distance air_time  gain    speed
##    <int> <int> <int>     <dbl>     <dbl>    <dbl>    <dbl> <dbl>    <dbl>
##  1  2013     1     1         2        11     1400      227     9 370.0441
##  2  2013     1     1         4        20     1416      227    16 374.2731
##  3  2013     1     1         2        33     1089      160    31 408.3750
##  4  2013     1     1        -1       -18     1576      183   -17 516.7213
##  5  2013     1     1        -6       -25      762      116   -19 394.1379
##  6  2013     1     1        -4        12      719      150    16 287.6000
##  7  2013     1     1        -5        19     1065      158    24 404.4304
##  8  2013     1     1        -3       -14      229       53   -11 259.2453
##  9  2013     1     1        -3        -8      944      140    -5 404.5714
## 10  2013     1     1        -2         8      733      138    10 318.6957
## # ... with 336,766 more rows

## Note that you can refer to columns that you just created

mutate(flights_sml,
       gain = arr_delay - dep_delay,
       hours = air_time / 60,
       gain_per_hour = gain / hours
       )

## # A tibble: 336,776 x 10
##     year month   day dep_delay arr_delay distance air_time  gain     hours
##    <int> <int> <int>     <dbl>     <dbl>    <dbl>    <dbl> <dbl>     <dbl>
##  1  2013     1     1         2        11     1400      227     9 3.7833333
##  2  2013     1     1         4        20     1416      227    16 3.7833333
##  3  2013     1     1         2        33     1089      160    31 2.6666667
##  4  2013     1     1        -1       -18     1576      183   -17 3.0500000
##  5  2013     1     1        -6       -25      762      116   -19 1.9333333
##  6  2013     1     1        -4        12      719      150    16 2.5000000
##  7  2013     1     1        -5        19     1065      158    24 2.6333333
##  8  2013     1     1        -3       -14      229       53   -11 0.8833333
##  9  2013     1     1        -3        -8      944      140    -5 2.3333333
## 10  2013     1     1        -2         8      733      138    10 2.3000000
## # ... with 336,766 more rows, and 1 more variables: gain_per_hour <dbl>

## If you only want to keep the new variables than use transmute()

transmute(flights,
          gain = arr_delay - dep_delay,
          hours = air_time / 60,
          gain_per_hour = gain / hours)

## # A tibble: 336,776 x 3
##     gain     hours gain_per_hour
##    <dbl>     <dbl>         <dbl>
##  1     9 3.7833333      2.378855
##  2    16 3.7833333      4.229075
##  3    31 2.6666667     11.625000
##  4   -17 3.0500000     -5.573770
##  5   -19 1.9333333     -9.827586
##  6    16 2.5000000      6.400000
##  7    24 2.6333333      9.113924
##  8   -11 0.8833333    -12.452830
##  9    -5 2.3333333     -2.142857
## 10    10 2.3000000      4.347826
## # ... with 336,766 more rows

Useful Creation Functions

## By now you should be familiar with the +, -, *, /, and ^ arithmatic operators

## But modular arithematic operators are very powerful, too
## '%/%' is integer division and '%%' is remainder

transmute(flights,
          dep_time,
          hour = dep_time %/% 100,
          minute = dep_time %% 100
          )

## # A tibble: 336,776 x 3
##    dep_time  hour minute
##       <int> <dbl>  <dbl>
##  1      517     5     17
##  2      533     5     33
##  3      542     5     42
##  4      544     5     44
##  5      554     5     54
##  6      554     5     54
##  7      555     5     55
##  8      557     5     57
##  9      557     5     57
## 10      558     5     58
## # ... with 336,766 more rows
…
